%YAML 1.1
%TAG !u! tag:unity3d.com,2011:
--- !u!78 &1
TagManager:
  serializedVersion: 2
  tags:
  - organic_tile
  layers:
  - Default
  - TransparentFX
  - Ignore Raycast
  - 
  - Water
  - UI
  - 
  - 
  - 
  - 
  - 
  - 
  - 
  - 
  - 
  - 
  - 
  - 
  - 
  - 
  - 
  - 
  - 
  - 
  - 
  - 
  - 
  - 
  - 
  - 
  - 
  - 
  m_SortingLayers:
  - name: DyingTile
    uniqueID: 3312965071
    locked: 0
  - name: Default
    uniqueID: 0
    locked: 0
  - name: Blade
    uniqueID: 2266648761
    locked: 0
  - name: Player
    uniqueID: 1023087515
    locked: 0
